<define-tag pagetitle>DLA-2899-1 policykit-1</define-tag>
<define-tag report_date>2022-01-25</define-tag>
<define-tag secrefs>CVE-2021-4034</define-tag>
<define-tag packages>policykit-1</define-tag>
<define-tag isvulnerable>yes</define-tag>
<define-tag fixed>yes</define-tag>
<define-tag fixed-section>no</define-tag>

#use wml::debian::security

