<define-tag pagetitle>DLA-3234-1 hsqldb</define-tag>
<define-tag report_date>2022-12-10</define-tag>
<define-tag secrefs>CVE-2022-41853 Bug#1023573</define-tag>
<define-tag packages>hsqldb</define-tag>
<define-tag isvulnerable>yes</define-tag>
<define-tag fixed>yes</define-tag>
<define-tag fixed-section>no</define-tag>

#use wml::debian::security

