<define-tag pagetitle>DLA-2981-1 lrzip</define-tag>
<define-tag report_date>2022-04-13</define-tag>
<define-tag secrefs>CVE-2018-5786 CVE-2020-25467 CVE-2021-27345 CVE-2021-27347 CVE-2022-26291 Bug#888506 Bug#990583</define-tag>
<define-tag packages>lrzip</define-tag>
<define-tag isvulnerable>yes</define-tag>
<define-tag fixed>yes</define-tag>
<define-tag fixed-section>no</define-tag>

#use wml::debian::security

