<define-tag pagetitle>DLA-3116-1 mako</define-tag>
<define-tag report_date>2022-09-21</define-tag>
<define-tag secrefs>CVE-2022-40023</define-tag>
<define-tag packages>mako</define-tag>
<define-tag isvulnerable>yes</define-tag>
<define-tag fixed>yes</define-tag>
<define-tag fixed-section>no</define-tag>

#use wml::debian::security

