<define-tag pagetitle>DLA-3042-1 clamav</define-tag>
<define-tag report_date>2022-06-03</define-tag>
<define-tag secrefs>CVE-2022-20770 CVE-2022-20771 CVE-2022-20785 CVE-2022-20792 CVE-2022-20796</define-tag>
<define-tag packages>clamav</define-tag>
<define-tag isvulnerable>yes</define-tag>
<define-tag fixed>yes</define-tag>
<define-tag fixed-section>no</define-tag>

#use wml::debian::security

