<define-tag pagetitle>DLA-3091-1 sofia-sip</define-tag>
<define-tag report_date>2022-09-02</define-tag>
<define-tag secrefs>CVE-2022-31001 CVE-2022-31002 CVE-2022-31003</define-tag>
<define-tag packages>sofia-sip</define-tag>
<define-tag isvulnerable>yes</define-tag>
<define-tag fixed>yes</define-tag>
<define-tag fixed-section>no</define-tag>

#use wml::debian::security

