<define-tag pagetitle>DLA-2962-2 pjproject</define-tag>
<define-tag report_date>2022-3-31</define-tag>
<define-tag secrefs>CVE-2022-23608</define-tag>
<define-tag packages>pjproject</define-tag>
<define-tag isvulnerable>yes</define-tag>
<define-tag fixed>yes</define-tag>
<define-tag fixed-section>no</define-tag>

#use wml::debian::security

