<define-tag pagetitle>DSA-4980-1 qemu</define-tag>
<define-tag report_date>2021-10-03</define-tag>
<define-tag secrefs>CVE-2021-3544 CVE-2021-3545 CVE-2021-3546 CVE-2021-3638 CVE-2021-3682 CVE-2021-3713 CVE-2021-3748 Bug#988174 Bug#989042 Bug#991911 Bug#992726 Bug#992727 Bug#993401</define-tag>
<define-tag packages>qemu</define-tag>
<define-tag isvulnerable>yes</define-tag>
<define-tag fixed>yes</define-tag>
<define-tag fixed-section>no</define-tag>

#use wml::debian::security



</dl>
