<define-tag pagetitle>DLA-2800-1 cups</define-tag>
<define-tag report_date>2021-10-30</define-tag>
<define-tag secrefs>CVE-2020-10001</define-tag>
<define-tag packages>cups</define-tag>
<define-tag isvulnerable>yes</define-tag>
<define-tag fixed>yes</define-tag>
<define-tag fixed-section>no</define-tag>

#use wml::debian::security

