<define-tag pagetitle>DLA-2636-1 pjproject</define-tag>
<define-tag report_date>2021-4-23</define-tag>
<define-tag secrefs>CVE-2021-21375</define-tag>
<define-tag packages>pjproject</define-tag>
<define-tag isvulnerable>yes</define-tag>
<define-tag fixed>yes</define-tag>
<define-tag fixed-section>no</define-tag>

#use wml::debian::security

