<define-tag pagetitle>DLA-2802-1 elfutils</define-tag>
<define-tag report_date>2021-10-31</define-tag>
<define-tag secrefs>CVE-2018-16062 CVE-2018-16402 CVE-2018-18310 CVE-2018-18520 CVE-2018-18521 CVE-2019-7150 CVE-2019-7665 Bug#907562 Bug#911083 Bug#911413 Bug#911414 Bug#920909 Bug#921880</define-tag>
<define-tag packages>elfutils</define-tag>
<define-tag isvulnerable>yes</define-tag>
<define-tag fixed>yes</define-tag>
<define-tag fixed-section>no</define-tag>

#use wml::debian::security

