<define-tag pagetitle>DLA-2743-1 amd64-microcode</define-tag>
<define-tag report_date>2021-08-16</define-tag>
<define-tag secrefs>CVE-2017-5715 Bug#886382</define-tag>
<define-tag packages>amd64-microcode</define-tag>
<define-tag isvulnerable>yes</define-tag>
<define-tag fixed>yes</define-tag>
<define-tag fixed-section>no</define-tag>

#use wml::debian::security

