<define-tag pagetitle>DLA-2779-1 mediawiki</define-tag>
<define-tag report_date>2021-10-09</define-tag>
<define-tag secrefs>CVE-2021-35197 CVE-2021-41798 CVE-2021-41799</define-tag>
<define-tag packages>mediawiki</define-tag>
<define-tag isvulnerable>yes</define-tag>
<define-tag fixed>yes</define-tag>
<define-tag fixed-section>no</define-tag>

#use wml::debian::security

