<define-tag pagetitle>DLA-2861-1 rdflib</define-tag>
<define-tag report_date>2021-12-28</define-tag>
<define-tag secrefs>CVE-2019-7653 Bug#921751</define-tag>
<define-tag packages>rdflib</define-tag>
<define-tag isvulnerable>yes</define-tag>
<define-tag fixed>yes</define-tag>
<define-tag fixed-section>no</define-tag>

#use wml::debian::security

