<define-tag pagetitle>DLA-2788-1 strongswan</define-tag>
<define-tag report_date>2021-10-19</define-tag>
<define-tag secrefs>CVE-2021-41991</define-tag>
<define-tag packages>strongswan</define-tag>
<define-tag isvulnerable>yes</define-tag>
<define-tag fixed>yes</define-tag>
<define-tag fixed-section>no</define-tag>

#use wml::debian::security

