<define-tag pagetitle>DSA-5316-1 netty</define-tag>
<define-tag report_date>2023-1-11</define-tag>
<define-tag secrefs>CVE-2021-37136 CVE-2021-37137 CVE-2021-43797 CVE-2022-41881 CVE-2022-41915 Bug#1027180 Bug#1014769 Bug#1001437</define-tag>
<define-tag packages>netty</define-tag>
<define-tag isvulnerable>yes</define-tag>
<define-tag fixed>yes</define-tag>
<define-tag fixed-section>no</define-tag>

#use wml::debian::security



</dl>
