<define-tag pagetitle>DLA-817-1 libphp-phpmailer</define-tag>
<define-tag report_date>2017-2-6</define-tag>
<define-tag secrefs>CVE-2017-5223 Bug##853232</define-tag>
<define-tag packages>libphp-phpmailer</define-tag>
<define-tag isvulnerable>yes</define-tag>
<define-tag fixed>yes</define-tag>
<define-tag fixed-section>no</define-tag>

#use wml::debian::security

