<define-tag pagetitle>DLA-3296-1 libhtml-stripscripts-perl</define-tag>
<define-tag report_date>2023-01-31</define-tag>
<define-tag secrefs>CVE-2023-24038 Bug#1029400</define-tag>
<define-tag packages>libhtml-stripscripts-perl</define-tag>
<define-tag isvulnerable>yes</define-tag>
<define-tag fixed>yes</define-tag>
<define-tag fixed-section>no</define-tag>

#use wml::debian::security

