<define-tag pagetitle>DLA-3293-1 modsecurity-crs</define-tag>
<define-tag report_date>2023-01-30</define-tag>
<define-tag secrefs>CVE-2018-16384 CVE-2020-22669 CVE-2021-35368 CVE-2022-39955 CVE-2022-39956 CVE-2022-39957 CVE-2022-39958 Bug#924352 Bug#992000 Bug#1021137</define-tag>
<define-tag packages>modsecurity-crs</define-tag>
<define-tag isvulnerable>yes</define-tag>
<define-tag fixed>yes</define-tag>
<define-tag fixed-section>no</define-tag>

#use wml::debian::security

