<define-tag pagetitle>DLA-3278-1 tiff</define-tag>
<define-tag report_date>2023-01-20</define-tag>
<define-tag secrefs>CVE-2022-1354 CVE-2022-1355 CVE-2022-2056 CVE-2022-2057 CVE-2022-2058 CVE-2022-2867 CVE-2022-2868 CVE-2022-2869 CVE-2022-3570 CVE-2022-3597 CVE-2022-3598 CVE-2022-3599 CVE-2022-3626 CVE-2022-3627 CVE-2022-3970 CVE-2022-34526 Bug#1011160 Bug#1014494 Bug#1022555 Bug#1024737</define-tag>
<define-tag packages>tiff</define-tag>
<define-tag isvulnerable>yes</define-tag>
<define-tag fixed>yes</define-tag>
<define-tag fixed-section>no</define-tag>

#use wml::debian::security

