<define-tag pagetitle>DLA-3294-1 libarchive</define-tag>
<define-tag report_date>2023-1-30</define-tag>
<define-tag secrefs>CVE-2022-36227</define-tag>
<define-tag packages>libarchive</define-tag>
<define-tag isvulnerable>yes</define-tag>
<define-tag fixed>yes</define-tag>
<define-tag fixed-section>no</define-tag>

#use wml::debian::security

