<define-tag pagetitle>DLA-2490-1 x11vnc</define-tag>
<define-tag report_date>2020-12-10</define-tag>
<define-tag secrefs>CVE-2020-29074</define-tag>
<define-tag packages>x11vnc</define-tag>
<define-tag isvulnerable>yes</define-tag>
<define-tag fixed>yes</define-tag>
<define-tag fixed-section>no</define-tag>

#use wml::debian::security

