<define-tag pagetitle>DLA-2186-1 ncmpc</define-tag>
<define-tag report_date>2020-4-25</define-tag>
<define-tag secrefs>CVE-2018-9240</define-tag>
<define-tag packages>ncmpc</define-tag>
<define-tag isvulnerable>yes</define-tag>
<define-tag fixed>yes</define-tag>
<define-tag fixed-section>no</define-tag>

#use wml::debian::security

