<define-tag pagetitle>DLA-2469-1 qemu</define-tag>
<define-tag report_date>2020-11-29</define-tag>
<define-tag secrefs>CVE-2020-25085 CVE-2020-25624 CVE-2020-25625 CVE-2020-25723 CVE-2020-27617</define-tag>
<define-tag packages>qemu</define-tag>
<define-tag isvulnerable>yes</define-tag>
<define-tag fixed>yes</define-tag>
<define-tag fixed-section>no</define-tag>

#use wml::debian::security

