<define-tag pagetitle>DLA-1289-1 irssi</define-tag>
<define-tag report_date>2018-2-22</define-tag>
<define-tag secrefs>CVE-2018-7050 CVE-2018-7051 CVE-2018-7052 Bug##890676 Bug##890677 Bug##890678</define-tag>
<define-tag packages>irssi</define-tag>
<define-tag isvulnerable>yes</define-tag>
<define-tag fixed>yes</define-tag>
<define-tag fixed-section>no</define-tag>

#use wml::debian::security

