<define-tag pagetitle>DLA-1384-1 xdg-utils</define-tag>
<define-tag report_date>2018-5-25</define-tag>
<define-tag secrefs>CVE-2017-18266 Bug#898317</define-tag>
<define-tag packages>xdg-utils</define-tag>
<define-tag isvulnerable>yes</define-tag>
<define-tag fixed>yes</define-tag>
<define-tag fixed-section>no</define-tag>

#use wml::debian::security

