<define-tag pagetitle>DSA-4467-1 vim</define-tag>
<define-tag report_date>2019-6-18</define-tag>
<define-tag secrefs>CVE-2019-12735</define-tag>
<define-tag packages>vim</define-tag>
<define-tag isvulnerable>yes</define-tag>
<define-tag fixed>yes</define-tag>
<define-tag fixed-section>no</define-tag>

#use wml::debian::security



</dl>
