<define-tag pagetitle>DSA-4430-1 wpa</define-tag>
<define-tag report_date>2019-4-10</define-tag>
<define-tag secrefs>CVE-2019-9495 CVE-2019-9497 CVE-2019-9498 CVE-2019-9499 Bug#926801</define-tag>
<define-tag packages>wpa</define-tag>
<define-tag isvulnerable>yes</define-tag>
<define-tag fixed>yes</define-tag>
<define-tag fixed-section>no</define-tag>

#use wml::debian::security



</dl>
