<define-tag pagetitle>DSA-4372-1 ghostscript</define-tag>
<define-tag report_date>2019-1-26</define-tag>
<define-tag secrefs>CVE-2019-6116</define-tag>
<define-tag packages>ghostscript</define-tag>
<define-tag isvulnerable>yes</define-tag>
<define-tag fixed>yes</define-tag>
<define-tag fixed-section>no</define-tag>

#use wml::debian::security



</dl>
