<define-tag pagetitle>DSA-4583-1 spip</define-tag>
<define-tag report_date>2019-12-13</define-tag>
<define-tag secrefs>CVE-2019-19830</define-tag>
<define-tag packages>spip</define-tag>
<define-tag isvulnerable>yes</define-tag>
<define-tag fixed>yes</define-tag>
<define-tag fixed-section>no</define-tag>

#use wml::debian::security



</dl>
