<define-tag pagetitle>DSA-5052-1 usbview</define-tag>
<define-tag report_date>2022-1-21</define-tag>
<define-tag secrefs>CVE-2022-23220</define-tag>
<define-tag packages>usbview</define-tag>
<define-tag isvulnerable>yes</define-tag>
<define-tag fixed>yes</define-tag>
<define-tag fixed-section>no</define-tag>

#use wml::debian::security



</dl>
