<define-tag pagetitle>DSA-5165-1 vlc</define-tag>
<define-tag report_date>2022-6-20</define-tag>
<define-tag secrefs>not yet available</define-tag>
<define-tag packages>vlc</define-tag>
<define-tag isvulnerable>yes</define-tag>
<define-tag fixed>yes</define-tag>
<define-tag fixed-section>no</define-tag>

#use wml::debian::security



</dl>
