<define-tag pagetitle>DSA-5041-1 cfrpki</define-tag>
<define-tag report_date>2022-1-11</define-tag>
<define-tag secrefs>CVE-2021-3761 CVE-2021-3907 CVE-2021-3908 CVE-2021-3909 CVE-2021-3910 CVE-2021-3911 CVE-2021-3912 CVE-2021-43173 CVE-2021-43174</define-tag>
<define-tag packages>cfrpki</define-tag>
<define-tag isvulnerable>yes</define-tag>
<define-tag fixed>yes</define-tag>
<define-tag fixed-section>no</define-tag>

#use wml::debian::security



</dl>
