<define-tag pagetitle>DLA-1814-1 python-django</define-tag>
<define-tag report_date>2019-06-05</define-tag>
<define-tag secrefs>CVE-2019-3498</define-tag>
<define-tag packages>python-django</define-tag>
<define-tag isvulnerable>yes</define-tag>
<define-tag fixed>yes</define-tag>
<define-tag fixed-section>no</define-tag>

#use wml::debian::security
