<define-tag pagetitle>DLA-2050-1 php5</define-tag>
<define-tag report_date>2019-12-29</define-tag>
<define-tag secrefs>CVE-2019-11045 CVE-2019-11046 CVE-2019-11047 CVE-2019-11050</define-tag>
<define-tag packages>php5</define-tag>
<define-tag isvulnerable>yes</define-tag>
<define-tag fixed>yes</define-tag>
<define-tag fixed-section>no</define-tag>

#use wml::debian::security

