<define-tag pagetitle>DLA-1965-1 nfs-utils</define-tag>
<define-tag report_date>2019-10-19</define-tag>
<define-tag secrefs>CVE-2019-3689 Bug#940848</define-tag>
<define-tag packages>nfs-utils</define-tag>
<define-tag isvulnerable>yes</define-tag>
<define-tag fixed>yes</define-tag>
<define-tag fixed-section>no</define-tag>

#use wml::debian::security

