<define-tag pagetitle>DLA-469-1 libgwenhywfar</define-tag>
<define-tag report_date>2016-5-12</define-tag>
<define-tag secrefs>CVE-2015-7542 Bug#748955</define-tag>
<define-tag packages>libgwenhywfar</define-tag>
<define-tag isvulnerable>yes</define-tag>
<define-tag fixed>yes</define-tag>
<define-tag fixed-section>no</define-tag>

#use wml::debian::security

