<define-tag pagetitle>DLA-638-1 policycoreutils</define-tag>
<define-tag report_date>2016-9-25</define-tag>
<define-tag secrefs>CVE-2016-7545 Bug#838599</define-tag>
<define-tag packages>policycoreutils</define-tag>
<define-tag isvulnerable>yes</define-tag>
<define-tag fixed>yes</define-tag>
<define-tag fixed-section>no</define-tag>

#use wml::debian::security

